<svg xmlns="http://www.w3.org/2000/svg" width="84" height="94" viewBox="0 0 84 94">
    <g fill="none" fill-rule="evenodd">
        <path fill="#FFF9D0" d="M74.919 63.426l.01 1.14c.04 16.028-13.554 29.022-30.303 29.022H39.04c-16.75 0-30.344-12.994-30.303-29.022l.008-.995C8.045 63.85 7.29 64 6.5 64 2.91 64 0 60.866 0 57s2.91-7 6.5-7c.833 0 1.63.169 2.362.476l.187-21.042C9.289 13.406 22.77.412 39.109.412h5.448c16.338 0 29.82 12.994 30.06 29.022l.188 21.194A6.089 6.089 0 0 1 77.5 50c3.59 0 6.5 3.134 6.5 7s-2.91 7-6.5 7c-.917 0-1.79-.205-2.581-.574z"/>
        <path fill="#D8921F" d="M42.5 49L48 64H37z"/>
        <path fill="#294055" d="M23.814 49.74l5.319-1.434-4.394-3.323.616-3.17 10.253 7.752-12.41 3.347.616-3.171zM60.604 49.213l-5.366-1.248 4.276-3.474-.727-3.148-9.976 8.106 12.52 2.912-.727-3.148z"/>
        <path stroke="#294055" stroke-linecap="round" stroke-width="3" d="M32 74c2.158-2.667 5.258-4 9.299-4 4.04 0 7.275 1.333 9.701 4"/>
    </g>
</svg>
