<svg xmlns="http://www.w3.org/2000/svg" xmlns:xlink="http://www.w3.org/1999/xlink" width="154" height="225" viewBox="0 0 154 225">
    <defs>
        <path id="a" d="M55.832 0h9.991c29.956 0 54.675 23.43 55.116 52.334l.572 63.352c.074 28.903-24.852 52.333-55.562 52.333H55.706c-30.71 0-55.636-23.43-55.562-52.333l.572-63.352C1.156 23.43 25.876 0 55.832 0z"/>
    </defs>
    <g fill="none" fill-rule="evenodd">
        <g transform="translate(15.941)">
            <mask id="b" fill="#fff">
                <use xlink:href="#a"/>
            </mask>
            <use fill="#FFF9D0" xlink:href="#a"/>
            <path fill="#50E3C2" d="M-6.941 38h133v19h-133z" mask="url(#b)"/>
        </g>
        <path fill="#D8921F" d="M76.869 87l9.869 27.95H67z"/>
        <path fill="#FFF9D0" d="M64.658 151.948h24.858v36.526H64.658z"/>
        <path fill="#FFF9D0" d="M61.766 179.708H92.41c23.693 0 45.455 16.898 48.608 37.743l1.141 7.549H12.017l1.142-7.549c3.152-20.845 24.914-37.743 48.607-37.743z"/>
        <ellipse cx="12.017" cy="102.273" fill="#FFF9D0" rx="11.698" ry="11.688"/>
        <ellipse cx="142.158" cy="102.273" fill="#FFF9D0" rx="11.698" ry="11.688"/>
        <path fill="#222E39" d="M62.196 124.841H92.87c-.382 8.134-7.103 14.61-15.337 14.61-8.235 0-14.955-6.476-15.337-14.61z"/>
        <circle cx="101" cy="90" r="6" fill="#222E39"/>
        <circle cx="53" cy="90" r="6" fill="#222E39"/>
        <g transform="translate(58 28)">
            <circle cx="19.5" cy="19.5" r="19.5" fill="#D8D8D8"/>
            <path fill="#E13677" d="M7.833 15.583h23.333v7.292H7.833z"/>
            <path fill="#E13677" d="M7.833 15.583h23.334v7.292H7.833z"/>
        </g>
    </g>
</svg>
