<svg xmlns="http://www.w3.org/2000/svg" width="75" height="66" viewBox="0 0 75 66">
    <path fill="#E13677" fill-rule="evenodd" d="M67.72 4.513c-8.027-6.88-19.964-5.643-27.333 2.004L37.5 9.507l-2.886-2.99C27.262-1.13 15.31-2.367 7.282 4.513c-9.2 7.897-9.682 22.068-1.45 30.628l28.344 29.434a4.576 4.576 0 0 0 6.636 0l28.344-29.434c8.247-8.56 7.763-22.731-1.436-30.628"/>
</svg>
