<svg xmlns="http://www.w3.org/2000/svg" width="83" height="101" viewBox="0 0 83 101">
    <g fill="none" fill-rule="evenodd">
        <rect width="77" height="88" x="6" fill="#00AC85" rx="38.5"/>
        <path fill="#00AC85" d="M9 42l9 18H0zM37 70h16v31H37z"/>
        <path fill="#FFF" d="M47 50.464c-6.139-1.493-11.063-5.97-13.05-11.754a12.442 12.442 0 0 1-6.45 1.79C20.596 40.5 15 34.904 15 28s5.596-12.5 12.5-12.5c.318 0 .634.012.946.035a7.003 7.003 0 0 1 10.213-3.504 7 7 0 0 1 12.682 0 7.003 7.003 0 0 1 17.418 11.14C72.887 23.99 76 27.632 76 32a8.978 8.978 0 0 1-3.005 6.712 9 9 0 0 1-10.945 9.076 18.676 18.676 0 0 1-7.05 2.89V57h-8v-6.536z"/>
        <path stroke="#D8D8D8" stroke-linecap="round" stroke-width="2" d="M33 39c3.333-1.75 5-3.75 5-6s-.833-3.917-2.5-5M60.898 40c-1.644 1.593-2.28 3.082-1.91 4.465.37 1.383 1.128 2.278 2.273 2.685M57.306 24.05c2.289.036 3.791-.567 4.507-1.807.716-1.24.813-2.408.292-3.505M39.172 13c.097 2.214.71 3.56 1.84 4.04 1.13.48 2.162.375 3.097-.315"/>
    </g>
</svg>
