<svg xmlns="http://www.w3.org/2000/svg" width="294" height="196" viewBox="0 0 294 196">
    <g fill="none" fill-rule="evenodd" transform="translate(1 -.5)">
        <path fill="#50E3C2" d="M19 55.5h264l-21.53 141H40.53z"/>
        <path fill="#50E3C2" d="M257.726.5c16.04 17.622 29.725 41.395 33.673 65.848 8.005 49.583-20.896 92.56-72.221 92.56-27.233 0-51.73-11.705-68.727-30.353-16.997 18.648-41.494 30.352-68.727 30.352C30.4 158.907 0 132.888 0 81.607 0 52.46 14.98 21.761 34.4.5h223.326z"/>
        <circle cx="46.5" cy="104" r="14.5" fill="#00AC85"/>
        <circle cx="249.5" cy="104" r="14.5" fill="#00AC85"/>
        <path stroke="#00AC85" stroke-linecap="round" stroke-width="2" d="M24.24 10.5c-32.32 61.17-32.32 105.007 0 131.514 24.913 17.67 54.833 14.952 89.76-8.156M267.76 10.5c32.32 61.17 32.32 105.007 0 131.514-24.913 17.67-54.833 14.952-89.76-8.156"/>
    </g>
</svg>
