<svg xmlns="http://www.w3.org/2000/svg" width="54" height="101" viewBox="0 0 54 101">
    <path fill="#00AC85" fill-rule="evenodd" d="M37 97h5.5a1.5 1.5 0 0 1 1.5 1.5v1a1.5 1.5 0 0 1-1.5 1.5H30V73h-6v24.085a1.5 1.5 0 0 1 1 1.415v1a1.5 1.5 0 0 1-1 1.415V101H12.5a1.5 1.5 0 0 1-1.5-1.5v-1a1.5 1.5 0 0 1 1.5-1.5H17V70.6a7.473 7.473 0 0 1-2-5.1V50.203l-4.257 8.729a2.5 2.5 0 0 1 .24 2.587l-2.531 5.19a2.5 2.5 0 0 1-3.343 1.15l-2.786-1.358a2.5 2.5 0 0 1-1.151-3.343l2.53-5.19a2.5 2.5 0 0 1 2.187-1.403L15 37.885V37.5a7.5 7.5 0 0 1 7.5-7.5H25v-3.016a7.5 7.5 0 0 1-7-7.484v-12A7.5 7.5 0 0 1 25.5 0h5A7.5 7.5 0 0 1 38 7.5v12a7.5 7.5 0 0 1-7.5 7.5H30v3h1.5a7.5 7.5 0 0 1 7.5 7.5v.385l9.11 18.68a2.5 2.5 0 0 1 2.187 1.404l2.531 5.189a2.5 2.5 0 0 1-1.15 3.343L48.89 67.86a2.5 2.5 0 0 1-3.343-1.152l-2.53-5.189a2.5 2.5 0 0 1 .24-2.587L39 50.203V65.5c0 1.97-.759 3.76-2 5.1V97z"/>
</svg>
