<svg xmlns="http://www.w3.org/2000/svg" width="86" height="86" viewBox="0 0 86 86">
    <g fill="none" fill-rule="evenodd" transform="translate(2 2)">
        <path fill="#294055" d="M46.355 41l12.119-12.118a1.796 1.796 0 0 0 0-2.54l-2.815-2.816a1.798 1.798 0 0 0-2.542 0L41 35.646 28.881 23.528a1.798 1.798 0 0 0-2.541 0l-2.815 2.814c-.7.702-.7 1.839 0 2.54L35.644 41l-12.12 12.118c-.699.701-.699 1.838 0 2.54l2.817 2.816a1.796 1.796 0 0 0 2.54 0L41 46.354l12.119 12.118a1.796 1.796 0 0 0 2.54 0l2.816-2.814c.7-.702.7-1.839 0-2.54L46.355 41z"/>
        <circle cx="41" cy="41" r="41" stroke="#294055" stroke-width="4"/>
    </g>
</svg>
