<svg xmlns="http://www.w3.org/2000/svg" width="86" height="86" viewBox="0 0 86 86">
    <g fill="none" fill-rule="evenodd" transform="translate(2 2)">
        <circle cx="41" cy="41" r="41" stroke="#294055" stroke-width="4"/>
        <path fill="#294055" d="M56.564 22.66H28.266a2.823 2.823 0 0 0-2.831 2.821v24.575a7.03 7.03 0 0 1 2.83-.591h28.299V22.66zm-.53 31.038H28.265a2.835 2.835 0 0 0-2.831 2.82 2.823 2.823 0 0 0 2.83 2.822h27.768c-.239-1.525-.239-4.117 0-5.642zm3.634-.028c-.372 1.147-.372 4.55 0 5.698a1.413 1.413 0 0 1 1.141 1.384v1.41c0 .776-.637 1.411-1.416 1.411H28.266c-3.91 0-7.075-3.157-7.075-7.054V25.48c0-3.897 3.165-7.054 7.075-7.054h31.127c.78 0 1.416.635 1.416 1.411v32.448c0 .688-.488 1.252-1.141 1.384zm-26.45-14.08h18.394a.708.708 0 0 0 .707-.706v-2.821a.709.709 0 0 0-.707-.706H33.218a.71.71 0 0 0-.708.706v2.821c0 .388.318.705.708.705zm-.708-7.76V29.01a.71.71 0 0 1 .708-.707h18.394c.388 0 .707.318.707.707v2.821a.707.707 0 0 1-.707.705H33.218a.708.708 0 0 1-.708-.705z"/>
    </g>
</svg>
